^F:\FOR HOMEWORK\PROGECK_19_LESSON\PROGECT_19\PROGECT_19\PROGECT_19.CPP
F:\FOR HOMEWORK\PROGECK_19_LESSON\PROGECT_19\PROGECT_19\DEBUG\VC142.PDB
F:\FOR HOMEWORK\PROGECK_19_LESSON\PROGECT_19\PROGECT_19\DEBUG\VC142.IDB
F:\FOR HOMEWORK\PROGECK_19_LESSON\PROGECT_19\PROGECT_19\DEBUG\PROGECT_19.OBJ
